<svg version="1.1" xmlns="http://www.w3.org/2000/svg" xmlns:xlink="http://www.w3.org/1999/xlink" width="38px" height="36.06px" viewBox="0 0 38 36.06">
<style type="text/css">
	path, polygon{
        fill-opacity:0;
        stroke:var(--stroke-color, green);
        stroke-width: var(--stroke-width);
    }
</style>
<defs>
</defs>
<g id="Page-1_1_">
	<g id="Desktop-HD_1_" transform="translate(-979.000000, -82.000000)">
		<g id="Group-9_1_" transform="translate(980.000000, 84.000000)">
			<polygon id="Stroke-1_1_" class="st0" points="8,10.03 0,10.03 0,22.03 8,22.03 21,32.03 21,0.03 			"/>
			<path id="Stroke-3_1_" class="st0" d="M24.54,19.57c0.9-0.9,1.46-2.15,1.46-3.54s-0.56-2.63-1.46-3.54"/>
			<path id="Stroke-5_1_" class="st0" d="M28.07,23.1c1.81-1.81,2.93-4.31,2.93-7.07c0-2.76-1.12-5.26-2.93-7.07"/>
			<path id="Stroke-7_1_" class="st0" d="M31.61,26.64C34.32,23.92,36,20.17,36,16.03c0-4.14-1.68-7.89-4.39-10.61"/>
		</g>
	</g>
</g>
</svg>