<svg version="1.1"
	 xmlns="http://www.w3.org/2000/svg" xmlns:xlink="http://www.w3.org/1999/xlink"
	 width="58.3px" height="59.9px" viewBox="0 0 58.3 59.9"
	 xml:space="preserve">
<style type="text/css">
	path{
		fill-opacity:0;
		stroke:var(--stroke-color, green);
		stroke-width: var(--stroke-width);
	}
</style>
<defs>
</defs>
<path class="st0" d="M58.1,59.4l-57-29.5l57-29.5"/>
</svg>