<svg version="1.1" xmlns="http://www.w3.org/2000/svg" xmlns:xlink="http://www.w3.org/1999/xlink" width="58.6px" height="60.6px" viewBox="0 0 58.6 60.6" xml:space="preserve" preserveAspectRatio="xMidYMid meet">
	<style type="text/css">
		path{
			fill-opacity: var(--fill-opacity, 0);
			stroke:var(--stroke-color, green);
			stroke-width: var(--stroke-width);
		}
	</style>
	<defs>
	</defs>
	<path class="st0" d="M0.5,0.8l57,29.5l-57,29.5V0.8z"/>
</svg>